{
    "name": "InputActions",
    "maps": [
        {
            "name": "NoyonActionMap",
            "id": "18724661-ba87-434f-b18e-1a2a9b6b10eb",
            "actions": [
                {
                    "name": "PenPosition",
                    "type": "PassThrough",
                    "id": "b3ba335d-c0e6-41a3-8970-62ddc025838b",
                    "expectedControlType": "Vector2",
                    "processors": "",
                    "interactions": ""
                },
                {
                    "name": "PenTip",
                    "type": "PassThrough",
                    "id": "bd166084-6931-43d1-ab01-e92e32ab5205",
                    "expectedControlType": "",
                    "processors": "",
                    "interactions": ""
                }
            ],
            "bindings": [
                {
                    "name": "",
                    "id": "2b2f4512-9c6e-410c-870e-73d164807305",
                    "path": "<Pen>/position",
                    "interactions": "",
                    "processors": "",
                    "groups": "",
                    "action": "PenPosition",
                    "isComposite": false,
                    "isPartOfComposite": false
                },
                {
                    "name": "",
                    "id": "22e82d10-b4d8-42e7-a7d1-e7ea16a80d29",
                    "path": "<Pen>/tip",
                    "interactions": "",
                    "processors": "",
                    "groups": "",
                    "action": "PenTip",
                    "isComposite": false,
                    "isPartOfComposite": false
                }
            ]
        }
    ],
    "controlSchemes": []
}