<?xml version="1.0" encoding="UTF-8" standalone="no"?>
<svg
   xmlns:dc="http://purl.org/dc/elements/1.1/"
   xmlns:cc="http://creativecommons.org/ns#"
   xmlns:rdf="http://www.w3.org/1999/02/22-rdf-syntax-ns#"
   xmlns:svg="http://www.w3.org/2000/svg"
   xmlns="http://www.w3.org/2000/svg"
   id="svg8"
   version="1.1"
   viewBox="0 0 210 297"
   height="297mm"
   width="210mm">
  <defs
     id="defs2" />
  <metadata
     id="metadata5">
    <rdf:RDF>
      <cc:Work
         rdf:about="">
        <dc:format>image/svg+xml</dc:format>
        <dc:type
           rdf:resource="http://purl.org/dc/dcmitype/StillImage" />
        <dc:title></dc:title>
      </cc:Work>
    </rdf:RDF>
  </metadata>
  <g
     id="layer1">
    <g
       id="g827">
      <circle
         style="fill:none;stroke:#000000;stroke-width:0.56499994;stroke-linecap:butt;stroke-linejoin:bevel;stroke-miterlimit:4;stroke-dasharray:none;stroke-dashoffset:0;stroke-opacity:0.83582091;paint-order:normal"
         id="path815"
         cx="99.880211"
         cy="52.354912"
         r="8.598958" />
      <path
         style="fill:none;stroke:#000000;stroke-width:0.56499994;stroke-linecap:butt;stroke-linejoin:bevel;stroke-miterlimit:4;stroke-dasharray:none;stroke-dashoffset:0;stroke-opacity:0.83582093;paint-order:normal"
         d="M 100.16369,61.331845 100.35268,95.160713 86.367558,114.4375"
         id="path817" />
      <path
         style="fill:none;stroke:#000000;stroke-width:0.56499994;stroke-linecap:butt;stroke-linejoin:bevel;stroke-miterlimit:4;stroke-dasharray:none;stroke-dashoffset:0;stroke-opacity:0.83582093;paint-order:normal"
         d="m 100.35268,95.160713 9.4494,19.087797"
         id="path819" />
      <path
         style="fill:none;stroke:#000000;stroke-width:0.56499994;stroke-linecap:butt;stroke-linejoin:bevel;stroke-miterlimit:4;stroke-dasharray:none;stroke-dashoffset:0;stroke-opacity:0.83582093;paint-order:normal"
         d="M 87.12351,81.742559 99.9747,69.269345 112.44792,81.364583"
         id="path821" />
    </g>
  </g>
</svg>
