%YAML 1.1
%TAG !u! tag:unity3d.com,2011:
--- !u!114 &11400000
MonoBehaviour:
  m_ObjectHideFlags: 0
  m_CorrespondingSourceObject: {fileID: 0}
  m_PrefabInstance: {fileID: 0}
  m_PrefabAsset: {fileID: 0}
  m_GameObject: {fileID: 0}
  m_Enabled: 1
  m_EditorHideFlags: 0
  m_Script: {fileID: 11500000, guid: 8b3a5a8d53a9a0f4994e08bc9b008895, type: 3}
  m_Name: mathshapesblack
  m_EditorClassIdentifier: 
  id: mathshapesblack
  index: 17
  catalogRaw: X:C0-CF,B0,D1-D6,B7,D8-DC,B5-B6,DF,EF,21-7E,FF
  path: Assets/TEXDraw/Fonts/Sprites/MathShapesBlack.png
  catalog: c000c100c200c300c400c500c600c700c800c900
  chars:
  - type: 0
    nextLargerHash: -1
    extensionExist: 0
    extensionHorizontal: 0
    extentTopHash: -1
    extentMiddleHash: -1
    extentBottomHash: -1
    extentRepeatHash: -1
    symbolName: legline
    symbolAlt: 
    characterMap: 0
  - type: 0
    nextLargerHash: -1
    extensionExist: 0
    extensionHorizontal: 0
    extentTopHash: -1
    extentMiddleHash: -1
    extentBottomHash: -1
    extentRepeatHash: -1
    symbolName: legrectangle
    symbolAlt: 
    characterMap: 0
  - type: 0
    nextLargerHash: -1
    extensionExist: 0
    extensionHorizontal: 0
    extentTopHash: -1
    extentMiddleHash: -1
    extentBottomHash: -1
    extentRepeatHash: -1
    symbolName: legcircle
    symbolAlt: 
    characterMap: 0
  - type: 0
    nextLargerHash: -1
    extensionExist: 0
    extensionHorizontal: 0
    extentTopHash: -1
    extentMiddleHash: -1
    extentBottomHash: -1
    extentRepeatHash: -1
    symbolName: legtriangle
    symbolAlt: 
    characterMap: 0
  - type: 0
    nextLargerHash: -1
    extensionExist: 0
    extensionHorizontal: 0
    extentTopHash: -1
    extentMiddleHash: -1
    extentBottomHash: -1
    extentRepeatHash: -1
    symbolName: legrighttriangle
    symbolAlt: 
    characterMap: 0
  - type: 0
    nextLargerHash: -1
    extensionExist: 0
    extensionHorizontal: 0
    extentTopHash: -1
    extentMiddleHash: -1
    extentBottomHash: -1
    extentRepeatHash: -1
    symbolName: legrightarrow
    symbolAlt: 
    characterMap: 0
  - type: 0
    nextLargerHash: -1
    extensionExist: 0
    extensionHorizontal: 0
    extentTopHash: -1
    extentMiddleHash: -1
    extentBottomHash: -1
    extentRepeatHash: -1
    symbolName: legvertellipse
    symbolAlt: 
    characterMap: 0
  - type: 0
    nextLargerHash: -1
    extensionExist: 0
    extensionHorizontal: 0
    extentTopHash: -1
    extentMiddleHash: -1
    extentBottomHash: -1
    extentRepeatHash: -1
    symbolName: legrightellipse
    symbolAlt: 
    characterMap: 0
  - type: 0
    nextLargerHash: -1
    extensionExist: 0
    extensionHorizontal: 0
    extentTopHash: -1
    extentMiddleHash: -1
    extentBottomHash: -1
    extentRepeatHash: -1
    symbolName: leghorzellipse
    symbolAlt: 
    characterMap: 0
  - type: 0
    nextLargerHash: -1
    extensionExist: 0
    extensionHorizontal: 0
    extentTopHash: -1
    extentMiddleHash: -1
    extentBottomHash: -1
    extentRepeatHash: -1
    symbolName: legleftellipse
    symbolAlt: 
    characterMap: 0
  assets:
  - {fileID: 21300000, guid: d369c584f89863447a2ae5211df43068, type: 3}
  - {fileID: 21300002, guid: d369c584f89863447a2ae5211df43068, type: 3}
  - {fileID: 21300004, guid: d369c584f89863447a2ae5211df43068, type: 3}
  - {fileID: 21300006, guid: d369c584f89863447a2ae5211df43068, type: 3}
  - {fileID: 21300008, guid: d369c584f89863447a2ae5211df43068, type: 3}
  - {fileID: 21300010, guid: d369c584f89863447a2ae5211df43068, type: 3}
  - {fileID: 21300012, guid: d369c584f89863447a2ae5211df43068, type: 3}
  - {fileID: 21300014, guid: d369c584f89863447a2ae5211df43068, type: 3}
  - {fileID: 21300016, guid: d369c584f89863447a2ae5211df43068, type: 3}
  - {fileID: 21300018, guid: d369c584f89863447a2ae5211df43068, type: 3}
  lineOffset: 0.2
  lineHeight: 1
  alphaOnly: 0
